<div class="navbar navbar-default navbar-inverse">
  <div class="container-fluid">
            <div class="navbar-header">
                <button type="button" class="navbar-toggle" data-toggle="collapse" data-target="#navbarCollapse">
                    <span class="sr-only">Toggle navigation</span>
                    <span class="icon-bar"></span>
                    <span class="icon-bar"></span>
                    <span class="icon-bar"></span>
                </button>
            </div>
            <!-- Collect the nav links, forms, and other content for toggling -->
            <div class="collapse navbar-collapse" id="navbarCollapse">
                <ul class="menu_selection">
                    <li class="active"><a href="https://www.tutorialrepublic.com" target="_blank">Home</a></li>
                    <li><a href="https://www.tutorialrepublic.com/about-us.php" target="_blank">Boardcast</a></li>
                    <li><a href="https://www.tutorialrepublic.com/contact-us.php" target="_blank">News</a></li>  
                    <li><a href="https://www.tutorialrepublic.com/contact-us.php" target="_blank">Busines</a></li>
                    <li><a href="https://www.tutorialrepublic.com/contact-us.php" target="_blank">Markets</a></li>
                    <li><a href="https://www.tutorialrepublic.com/contact-us.php" target="_blank">Technolgy</a></li>
                    <li><a href="https://www.tutorialrepublic.com/contact-us.php" target="_blank">Finace</a></li>
                    <li><a href="https://www.tutorialrepublic.com/contact-us.php" target="_blank">Legal</a></li>
                    <li><a href="https://www.tutorialrepublic.com/contact-us.php" target="_blank">Calendar</a></li>
                </ul>
        </div>
    </div>
	</div>
	</div>
